…
# clean_dates(): Correct by snapshot test

    Code
      clean_dates(de.raw_datenotes)
    Output
      # A tibble: 31 x 14
         event_title       id_indiv  year month   day later_year later_month later_day
         <chr>             <chr>    <int> <int> <int>      <int>       <int>     <int>
       1 TIPNIS landowner~ i10012    1990     5    NA         NA          NA        NA
       2 Sucre assassinat~ i11002    1991     4    30       1992          11         9
       3 UMOPAR 1992       i12002    1992     6    NA         NA          NA        NA
       4 Laymi-Qaqachaka ~ i15002    1995     6    NA         NA          NA        NA
       5 Laymi-Qaqachaka ~ i15003    1995     6    NA         NA          NA        NA
       6 Laymi-Qaqachaka ~ i15004    1995     6    NA         NA          NA        NA
       7 Chayanta mining ~ i16021    1996    12    NA       1996          12        24
       8 Cocalero Death D~ i16022    1996    NA    NA         NA          NA        NA
       9 Laymi-Qaqachaka ~ i17001    1997     3    NA         NA          NA        NA
      10 Laymi-Qaqachaka ~ i17002    1997     3    NA         NA          NA        NA
      # i 21 more rows
      # i 6 more variables: day_notes <chr>, month_notes <chr>, year_notes <chr>,
      #   later_day_notes <chr>, later_month_notes <chr>, later_year_notes <chr>
