…
---

    Code
      n_responsibility_by(deaths_aug24, cause_death, complete = TRUE)
    Output
      # A tibble: 60 x 5
         cause_death                 n n_state_perp n_state_victim n_state_separate
         <chr>                   <int>        <int>          <int>            <int>
       1 Assault                     1            0              0                1
       2 Assault, whipping, rape     1            0              0                1
       3 Beating                    38           11              8               17
       4 Beating / Impact            2            0              0                2
       5 Beating and Gunshot         1            0              0                1
       6 Beating, burning            1            0              1                0
       7 Beating, torture            1            1              0                0
       8 Beating/tear gas            1            0              0                1
       9 COVID / Beating             1            0              0                1
      10 Cable cut through neck      1            0              0                0
      # i 50 more rows
…
---

    Code
      n_categorized_by(deaths_aug24, pres_admin, protest_domain, complete = TRUE)
    Output
      # A tibble: 240 x 17
         pres_admin              protest_domain     n n_coca n_armedactor n_state_perp
         <chr>                   <chr>          <int>  <int>        <int>        <int>
       1 Carlos Diego Mesa Gisb~ Coca               7      7            0            2
       2 Carlos Diego Mesa Gisb~ Contraband         0      0            0            0
       3 Carlos Diego Mesa Gisb~ Disabled           0      0            0            0
       4 Carlos Diego Mesa Gisb~ Drug trade         0      0            0            0
       5 Carlos Diego Mesa Gisb~ Economic poli~     0      0            0            0
       6 Carlos Diego Mesa Gisb~ Education          0      0            0            0
       7 Carlos Diego Mesa Gisb~ Ethno-ecologi~     0      0            0            0
       8 Carlos Diego Mesa Gisb~ Gas Wars           1      0            0            1
       9 Carlos Diego Mesa Gisb~ Guerrilla          0      0            0            0
      10 Carlos Diego Mesa Gisb~ Labor              0      0            0            0
      # i 230 more rows
      # i 11 more variables: n_state_perp_coca <int>, n_state_perp_armedactor <int>,
      #   n_state_victim <int>, n_state_victim_coca <int>,
      #   n_state_victim_armedactor <int>, n_state_separate <int>,
      #   n_state_perp_ordinary <int>, n_state_victim_ordinary <int>,
      #   n_remaining <int>, n_remaining_coca <int>, n_remaining_armedactor <int>
